Elections américaines sous la loi de Benford
…
des milliers de personnes mortes ont votés

D'après ces accusations, les données auraient donc été manipulés en faveur de Biden et/ou en défaveur de Trump. Si cela se confirme un pattern suspicieux devrait se retrouver sur les votes de Biden et/ou Trump.

L'objectif de cette étude sera de vérifier (en parallèle) la conformité à la loi de Benford des données d'élections des deux principaux candidats. Une première description des données sera effectué pour obtenir une vue d'ensemble. Ensuite, les statistiques les plus courants seront réalisé concernant les votes des deux candidats.

Avec deux hypothèses principales : Est ce que le jeu de données est conforme à la loi de Benford? À quelle distance se trouve le jeu de données comparé à loi de Benford?

Après avoir analysé les résultats, une discussion et une conclusion concernant la validité des méthodes utilisées sera effectué.

Le jeu de données sur lequel se basera l'étude vient du site internet "MIT Election Data Science Lab". Ce fichier contient les données d'élections présidentielles des États-unis de 1976 à 2020 par comté.

Voici l'en tête du jeu de données complet (72,617 observations et 12 variables) :

## # A tibble: 72,617 × 12
##     year state   state_po county_name county_fips office    candidate    party  
##    <int> <chr>   <chr>    <chr>             <int> <chr>     <chr>        <chr>  
##  1  2000 ALABAMA AL       AUTAUGA            1001 PRESIDENT AL GORE      DEMOCR…
##  2  2000 ALABAMA AL       AUTAUGA            1001 PRESIDENT GEORGE W. B… REPUBL…
##  3  2000 ALABAMA AL       AUTAUGA            1001 PRESIDENT RALPH NADER  GREEN  
##  4  2000 ALABAMA AL       AUTAUGA            1001 PRESIDENT OTHER        OTHER  
##  5  2000 ALABAMA AL       BALDWIN            1003 PRESIDENT AL GORE      DEMOCR…
##  6  2000 ALABAMA AL       BALDWIN            1003 PRESIDENT GEORGE W. B… REPUBL…
##  7  2000 ALABAMA AL       BALDWIN            1003 PRESIDENT RALPH NADER  GREEN  
##  8  2000 ALABAMA AL       BALDWIN            1003 PRESIDENT OTHER        OTHER  
##  9  2000 ALABAMA AL       BARBOUR            1005 PRESIDENT AL GORE      DEMOCR…
## 10  2000 ALABAMA AL       BARBOUR            1005 PRESIDENT GEORGE W. B… REPUBL…
## # … with 72,607 more rows, and 4 more variables: candidatevotes <int>,
## #   totalvotes <int>, version <int>, mode <chr>
…
9
0.492

Selon les seuils précédemment décrit dans le chapitre Méthode, les chiffres 4 & 5 (respectivement 3.43 & 2.85) sont rejeté au seuil d'acceptance de 1%. Ce sont les chiffres qui ont été visuellement remarqués sur la figure 3 et qui étaient en dehors des intervalles de confiances pour les valeur théoriques du tableau 2 . Le 4 a environ 1.8% de plus que la proportion attendu et le 5 a 1.4% de moins que la proportion attendu. Rapportés à la valeur de chaque proportion théorique, les différences sont d'environ 16% et 18% respectivement.

Concernant les valeurs du SSD, on remarque comme pour ceux de Trump que les trois chiffres sont assez petits. En effet ils sont tous inférieurs à 7 (respectivement 6.22, 2.03 et 3.04). Selon la classification, ils sont considérés comme assez proche et donc acceptable pour la LBD.

Les résultats du chi2 et du SSD pour le premier chiffre sont assez contradictoires. Tandis que le premier rejette largement l'hypothèse nulle de conformité à Benford. Le deuxième montre que celle-ci est plutôt assez proche de Benford et est donc largement acceptable.

Selon l'analyse du premier chiffre par le chi2, les données du premier chiffre suggère une possible manipulation des données de Biden. Cependant d'après le SSD, les données de celui-ci sont assez proche et sont donc largement acceptables par la LDB. Cette contradiction nous amène à nous questionner sur les hypothèses de départ dans le cadre de l'utilisation de ces tests.

En regard des résultats du chi2, du z-statistique et des intervalles de confiance, les chiffres 4 & 5 du premier CS peut être sujettes à une investigation plus précises. En passant à l'analyse du premier-deuxieme CS, on remarque que les chiffres 40,43,51,59 et 94 sont rejetés par la valeur critique du z-statistique. Les quatre premiers chiffres cités sont en cohérences avec les valeurs significatives des chiffres 4 & 5. Une recherche plus poussée concernant les procédures électorales des comtés en question peuvent être menés.

## # A tibble: 46 × 3
##    county_name county_fips      n
##    <chr>             <int>  <int>
##  1 FRANKLIN          39049 409144
##  2 RENSSELAER        36083  40969
##  3 GASTON            37071  40959
##  4 DOUGLAS           20045  40785
##  5 WEBER             49057  40695
##  6 SANDOVAL          35043  40588
##  7 MINNEHAHA         46099  40482
##  8 CASS              38017  40311
##  9 STAFFORD          51179  40245
## 10 CENTRE            42027  40055
## # … with 36 more rows
…
